%YAML 1.1
%TAG !u! tag:unity3d.com,2011:
--- !u!74 &7400000
AnimationClip:
  m_ObjectHideFlags: 0
  m_CorrespondingSourceObject: {fileID: 0}
  m_PrefabInstance: {fileID: 0}
  m_PrefabAsset: {fileID: 0}
  m_Name: Muerte
  serializedVersion: 6
  m_Legacy: 0
  m_Compressed: 0
  m_UseHighQualityCurve: 1
  m_RotationCurves: []
  m_CompressedRotationCurves: []
  m_EulerCurves: []
  m_PositionCurves: []
  m_ScaleCurves: []
  m_FloatCurves: []
  m_PPtrCurves:
  - curve:
    - time: 0
      value: {fileID: 21300000, guid: 6ff83a471cfca1642ac4c640d6fc4236, type: 3}
    - time: 0.083333336
      value: {fileID: 21300000, guid: 5102c8976067a0445a75d916522fbd8c, type: 3}
    - time: 0.16666667
      value: {fileID: 21300000, guid: ddf87d143b28acb489ef3dc01e0ad3c7, type: 3}
    - time: 0.25
      value: {fileID: 21300000, guid: afb94113784b60a4688c8786268cc9d3, type: 3}
    - time: 0.33333334
      value: {fileID: 21300000, guid: a0c2d88bffe084c47bd70712d39c2247, type: 3}
    - time: 0.41666666
      value: {fileID: 21300000, guid: 8de9f32a1bfa6124894bc989460bfe8b, type: 3}
    - time: 0.5
      value: {fileID: 21300000, guid: 8cd2724b74115ea4488ca5670d763bd3, type: 3}
    - time: 0.5833333
      value: {fileID: 21300000, guid: fd80d9651d9cecb42917a3f6f564f4a2, type: 3}
    - time: 0.6666667
      value: {fileID: 21300000, guid: b01a44c7de3e64f4796979bda1fdda4d, type: 3}
    - time: 0.75
      value: {fileID: 21300000, guid: 349e5a1fdfd1bae429a61bc255c2a56f, type: 3}
    attribute: m_Sprite
    path: 
    classID: 212
    script: {fileID: 0}
  m_SampleRate: 12
  m_WrapMode: 0
  m_Bounds:
    m_Center: {x: 0, y: 0, z: 0}
    m_Extent: {x: 0, y: 0, z: 0}
  m_ClipBindingConstant:
    genericBindings:
    - serializedVersion: 2
      path: 0
      attribute: 0
      script: {fileID: 0}
      typeID: 212
      customType: 23
      isPPtrCurve: 1
    pptrCurveMapping:
    - {fileID: 21300000, guid: 6ff83a471cfca1642ac4c640d6fc4236, type: 3}
    - {fileID: 21300000, guid: 5102c8976067a0445a75d916522fbd8c, type: 3}
    - {fileID: 21300000, guid: ddf87d143b28acb489ef3dc01e0ad3c7, type: 3}
    - {fileID: 21300000, guid: afb94113784b60a4688c8786268cc9d3, type: 3}
    - {fileID: 21300000, guid: a0c2d88bffe084c47bd70712d39c2247, type: 3}
    - {fileID: 21300000, guid: 8de9f32a1bfa6124894bc989460bfe8b, type: 3}
    - {fileID: 21300000, guid: 8cd2724b74115ea4488ca5670d763bd3, type: 3}
    - {fileID: 21300000, guid: fd80d9651d9cecb42917a3f6f564f4a2, type: 3}
    - {fileID: 21300000, guid: b01a44c7de3e64f4796979bda1fdda4d, type: 3}
    - {fileID: 21300000, guid: 349e5a1fdfd1bae429a61bc255c2a56f, type: 3}
  m_AnimationClipSettings:
    serializedVersion: 2
    m_AdditiveReferencePoseClip: {fileID: 0}
    m_AdditiveReferencePoseTime: 0
    m_StartTime: 0
    m_StopTime: 0.8333333
    m_OrientationOffsetY: 0
    m_Level: 0
    m_CycleOffset: 0
    m_HasAdditiveReferencePose: 0
    m_LoopTime: 1
    m_LoopBlend: 0
    m_LoopBlendOrientation: 0
    m_LoopBlendPositionY: 0
    m_LoopBlendPositionXZ: 0
    m_KeepOriginalOrientation: 0
    m_KeepOriginalPositionY: 1
    m_KeepOriginalPositionXZ: 0
    m_HeightFromFeet: 0
    m_Mirror: 0
  m_EditorCurves: []
  m_EulerEditorCurves: []
  m_HasGenericRootTransform: 0
  m_HasMotionFloatCurves: 0
  m_Events: []
