%YAML 1.1
%TAG !u! tag:unity3d.com,2011:
--- !u!74 &7400000
AnimationClip:
  m_ObjectHideFlags: 0
  m_CorrespondingSourceObject: {fileID: 0}
  m_PrefabInstance: {fileID: 0}
  m_PrefabAsset: {fileID: 0}
  m_Name: Muerte
  serializedVersion: 6
  m_Legacy: 0
  m_Compressed: 0
  m_UseHighQualityCurve: 1
  m_RotationCurves: []
  m_CompressedRotationCurves: []
  m_EulerCurves: []
  m_PositionCurves: []
  m_ScaleCurves: []
  m_FloatCurves: []
  m_PPtrCurves:
  - curve:
    - time: 0
      value: {fileID: 21300000, guid: 5bd5ffdad73d25f4db8be72203c2204f, type: 3}
    - time: 0.083333336
      value: {fileID: 21300000, guid: ccc6344902f480a459dd68310eb8ffd6, type: 3}
    - time: 0.16666667
      value: {fileID: 21300000, guid: 6d660c770bf41094698f7379a9085ac4, type: 3}
    - time: 0.25
      value: {fileID: 21300000, guid: d9132e7854a5657408313285242a7077, type: 3}
    - time: 0.33333334
      value: {fileID: 21300000, guid: eb9b3d5fbeee6a442bc40dc042c1a148, type: 3}
    - time: 0.41666666
      value: {fileID: 21300000, guid: 052f4213a7739eb4a86bddfa7e04a25c, type: 3}
    - time: 0.5
      value: {fileID: 21300000, guid: d83ef1a185ffc4c4198f867642652547, type: 3}
    - time: 0.5833333
      value: {fileID: 21300000, guid: 8a6170b78698600469776e79dcd57504, type: 3}
    - time: 0.6666667
      value: {fileID: 21300000, guid: ea6312922d21acb40b21783dcb43ec8e, type: 3}
    - time: 0.75
      value: {fileID: 21300000, guid: 2d07138d47e68174a897eba9bb7980dc, type: 3}
    attribute: m_Sprite
    path: 
    classID: 212
    script: {fileID: 0}
  m_SampleRate: 12
  m_WrapMode: 0
  m_Bounds:
    m_Center: {x: 0, y: 0, z: 0}
    m_Extent: {x: 0, y: 0, z: 0}
  m_ClipBindingConstant:
    genericBindings:
    - serializedVersion: 2
      path: 0
      attribute: 0
      script: {fileID: 0}
      typeID: 212
      customType: 23
      isPPtrCurve: 1
    pptrCurveMapping:
    - {fileID: 21300000, guid: 5bd5ffdad73d25f4db8be72203c2204f, type: 3}
    - {fileID: 21300000, guid: ccc6344902f480a459dd68310eb8ffd6, type: 3}
    - {fileID: 21300000, guid: 6d660c770bf41094698f7379a9085ac4, type: 3}
    - {fileID: 21300000, guid: d9132e7854a5657408313285242a7077, type: 3}
    - {fileID: 21300000, guid: eb9b3d5fbeee6a442bc40dc042c1a148, type: 3}
    - {fileID: 21300000, guid: 052f4213a7739eb4a86bddfa7e04a25c, type: 3}
    - {fileID: 21300000, guid: d83ef1a185ffc4c4198f867642652547, type: 3}
    - {fileID: 21300000, guid: 8a6170b78698600469776e79dcd57504, type: 3}
    - {fileID: 21300000, guid: ea6312922d21acb40b21783dcb43ec8e, type: 3}
    - {fileID: 21300000, guid: 2d07138d47e68174a897eba9bb7980dc, type: 3}
  m_AnimationClipSettings:
    serializedVersion: 2
    m_AdditiveReferencePoseClip: {fileID: 0}
    m_AdditiveReferencePoseTime: 0
    m_StartTime: 0
    m_StopTime: 0.8333333
    m_OrientationOffsetY: 0
    m_Level: 0
    m_CycleOffset: 0
    m_HasAdditiveReferencePose: 0
    m_LoopTime: 1
    m_LoopBlend: 0
    m_LoopBlendOrientation: 0
    m_LoopBlendPositionY: 0
    m_LoopBlendPositionXZ: 0
    m_KeepOriginalOrientation: 0
    m_KeepOriginalPositionY: 1
    m_KeepOriginalPositionXZ: 0
    m_HeightFromFeet: 0
    m_Mirror: 0
  m_EditorCurves: []
  m_EulerEditorCurves: []
  m_HasGenericRootTransform: 0
  m_HasMotionFloatCurves: 0
  m_Events: []
